FAST: single DLPFC section • ProFAST
…
#> Warning: package 'dplyr' was built under R version 4.1.3
#> 
#> Attaching package: 'dplyr'
#> The following objects are masked from 'package:stats':
#> 
#>     filter, lag
#> The following objects are masked from 'package:base':
#> 
#>     intersect, setdiff, setequal, union
n <- 5
dat_deg %>%
    group_by(cluster) %>%
    top_n(n = n, wt = avg_log2FC) -> top5
top5
#> # A tibble: 35 x 7
#> # Groups:   cluster [7]
#>       p_val avg_log2FC pct.1 pct.2 p_val_adj cluster gene   
#>       <dbl>      <dbl> <dbl> <dbl>     <dbl> <fct>   <chr>  
#>  1 8.39e-95      0.672 1     0.866  1.26e-90 0       ENC1   
#>  2 2.99e-90      0.751 0.928 0.529  4.49e-86 0       HOPX   
#>  3 1.57e-67      0.574 0.444 0.13   2.36e-63 0       CARTPT 
#>  4 1.68e-64      0.656 0.828 0.438  2.53e-60 0       HPCAL1 
#>  5 5.10e-62      0.583 0.46  0.156  7.67e-58 0       SAA1   
#>  6 7.59e-94      0.554 1     0.971  1.14e-89 1       SNAP25 
#>  7 1.36e-78      0.608 1     0.894  2.05e-74 1       SYT1   
#>  8 9.28e-67      0.778 0.862 0.567  1.40e-62 1       DIRAS2 
#>  9 1.44e-40      0.578 0.545 0.274  2.16e-36 1       TBR1   
#> 10 5.05e-32      0.585 0.871 0.664  7.59e-28 1       SCGB2A2
#> # i 25 more rows
…
